{
  "IsEncrypted": false,
  "Values": {
    "FUNCTIONS_WORKER_RUNTIME": "python",
    "AzureWebJobsStorage": "UseDevelopmentStorage=true",
    "blobConnectionString": "",
    "containerName": "",
    "EG_ACCESS_KEY": "",
    "EG_TOPIC_HOSTNAME": "",
    "AzureWebJobsSecretStorageType": "files"
  }
}